<svg width="18" height="14" viewBox="0 0 18 14" fill="none" xmlns="http://www.w3.org/2000/svg">
<path d="M3.01315 3.91212H0V10.0879H3.01315L8.88133 14V0L3.01315 3.91212ZM2.70557 9.20563H0.882247V4.79437H2.70557V9.20563ZM7.99906 12.3515L3.58782 9.41066V4.58934L7.99906 1.64851V12.3515Z" fill="white"/>
<path d="M17.0468 5.10625L16.423 4.48242L14.5293 6.37613L12.6355 4.48242L12.0117 5.10625L13.9054 6.99995L12.0117 8.89369L12.6355 9.51752L14.5293 7.62378L16.423 9.51752L17.0468 8.89369L15.1531 6.99995L17.0468 5.10625Z" fill="white"/>
</svg>
