<svg width="11" height="14" viewBox="0 0 11 14" fill="none" xmlns="http://www.w3.org/2000/svg">
<path d="M10.1649 3.83969C9.96505 3.16462 9.64422 2.59633 9.18348 2.10246C8.733 1.61937 8.21467 1.25304 7.59878 0.982437C6.89716 0.675016 6.08377 0.525645 5.30667 0.561673C5.02318 0.574559 4.74626 0.589548 4.47487 0.628732C3.71013 0.738131 3.03665 0.966132 2.41628 1.32562C1.62446 1.78531 1.0062 2.41014 0.578859 3.1833C0.356906 3.58565 0.138372 4.29516 0.045541 4.75853C-0.0643836 5.305 0.0323922 6.2525 0.25303 6.78687C0.528631 7.453 0.755317 7.74832 1.30836 8.16041C1.31178 8.16277 1.65365 8.40892 1.88139 8.40524C2.2961 8.39735 2.37868 8.00052 2.41812 7.80986C2.42549 7.77383 2.43285 7.73833 2.44153 7.70493C2.44915 7.67548 2.45915 7.64392 2.4694 7.61105C2.52805 7.4217 2.60773 7.16241 2.47545 6.93256C2.42575 6.84631 2.36684 6.77925 2.31504 6.72034C2.2869 6.68826 2.2585 6.65723 2.23562 6.62304C2.03891 6.33087 1.93924 5.96533 1.93924 5.53668C1.93924 4.97417 2.06652 4.46452 2.32871 3.97906C2.80417 3.09835 3.59311 2.54268 4.61057 2.37122C5.18964 2.27418 5.86444 2.31494 6.37067 2.47694C6.83325 2.62526 7.22693 2.88745 7.50937 3.23589C7.80837 3.60458 7.97931 4.07216 8.01718 4.62599C8.0419 4.97943 8.00981 5.3355 7.98325 5.57192C7.88095 6.48208 7.61614 7.21474 7.1959 7.7499C6.85166 8.18907 6.4806 8.40918 6.06115 8.42338C5.79107 8.4339 5.58911 8.37868 5.4066 8.24798C5.23435 8.12517 5.13179 7.97369 5.0834 7.77199C5.0287 7.54162 5.09471 7.30284 5.16492 7.04985L5.17623 7.00935C5.2375 6.78687 5.30167 6.58359 5.36452 6.38347C5.4634 6.06816 5.56596 5.74233 5.65038 5.36417C5.74584 4.93735 5.75846 4.59259 5.6893 4.31094C5.6041 3.96118 5.41607 3.69926 5.13047 3.532C4.82831 3.35581 4.40018 3.32188 4.04069 3.44548C3.50501 3.62825 3.09634 4.11476 2.91936 4.78009C2.82968 5.11802 2.80365 5.47278 2.84231 5.83358C2.87202 6.11655 2.9354 6.37374 3.05242 6.68431C3.04848 6.69773 3.04427 6.71193 3.04007 6.7256C3.03165 6.75321 3.02402 6.78004 3.01824 6.80292C2.89227 7.32887 2.76972 7.84746 2.64744 8.365C2.53147 8.85651 2.41523 9.34722 2.29663 9.84294L2.2698 9.95391C2.14831 10.4588 2.02313 10.9811 1.99394 11.6046L1.98079 11.865C1.95502 12.3494 1.92899 12.8503 1.99394 13.3137C2.00683 13.4042 2.03523 13.6069 2.23483 13.6777C2.29452 13.7224 2.35185 13.7413 2.4076 13.7413C2.57459 13.7413 2.72318 13.5717 2.84967 13.4278C3.26228 12.9587 3.61309 12.3662 3.92235 11.6172C4.06068 11.2822 4.15246 10.9217 4.24108 10.573L4.29447 10.3652C4.35916 10.117 4.42254 9.86529 4.48539 9.61625L4.4896 9.59968C4.6061 9.70172 4.74074 9.79376 4.89669 9.87923C5.22672 10.062 5.5991 10.1685 6.00303 10.1956C6.38172 10.2214 6.78039 10.1727 7.22036 10.0465C7.5546 9.95128 7.87438 9.80638 8.17154 9.61625C9.23765 8.93356 9.96426 7.73938 10.2178 6.25382C10.2938 5.80991 10.3261 5.45305 10.3261 5.06069C10.3256 4.6089 10.2717 4.1976 10.1649 3.83969ZM9.69892 6.16625C9.47039 7.50428 8.82715 8.57249 7.88727 9.17418C7.63323 9.33697 7.36 9.4603 7.07467 9.54183C6.6944 9.65123 6.35463 9.69356 6.03801 9.672C5.70639 9.64965 5.41633 9.56734 5.14941 9.41954C4.88249 9.27359 4.70945 9.11501 4.58795 8.90542L4.26554 8.34843L3.97495 9.48897C3.91262 9.73643 3.84951 9.98678 3.78508 10.2337L3.73117 10.4446C3.64307 10.7904 3.56023 11.1173 3.43585 11.4176C3.15893 12.0888 2.84967 12.6197 2.49202 13.0384C2.46414 12.682 2.48518 12.2823 2.5057 11.8939L2.51911 11.6304C2.54567 11.0566 2.66532 10.5593 2.78077 10.0783L2.80786 9.96654C2.92646 9.47056 3.0427 8.97906 3.15893 8.48729C3.28122 7.97001 3.4035 7.45194 3.5292 6.9273C3.53288 6.91258 3.53814 6.89522 3.54367 6.87708C3.57522 6.7711 3.6081 6.66143 3.56365 6.5502C3.45084 6.26118 3.3914 6.03055 3.36484 5.77915C3.33328 5.48198 3.35406 5.19165 3.42743 4.91605C3.55839 4.4235 3.84372 4.06927 4.21084 3.94409C4.30183 3.91279 4.39703 3.89965 4.48854 3.89965C4.63765 3.89965 4.77598 3.93541 4.86487 3.98722C5.02449 4.08084 5.12705 4.22758 5.17781 4.43691C5.22646 4.63572 5.21278 4.90948 5.13678 5.25056C5.05684 5.60689 4.96243 5.908 4.86224 6.227C4.79754 6.43264 4.73206 6.64145 4.66895 6.87024L4.6579 6.91021C4.57691 7.20185 4.48539 7.53242 4.57165 7.8948C4.65001 8.22299 4.82305 8.47861 5.10049 8.67689C5.37609 8.87386 5.69956 8.96196 6.07877 8.95013C6.65495 8.93067 7.16986 8.6364 7.60956 8.07573C8.09107 7.46246 8.39271 6.6404 8.50605 5.63135C8.53445 5.37416 8.56943 4.98653 8.54208 4.59075C8.49632 3.927 8.28647 3.36002 7.91803 2.90559C7.57117 2.47773 7.0915 2.15663 6.53135 1.97702C5.94991 1.79057 5.18044 1.7427 4.52352 1.85316C3.34012 2.05249 2.42128 2.70126 1.86587 3.72976C1.56134 4.29411 1.41329 4.88528 1.41329 5.53721C1.41329 6.07263 1.54293 6.53678 1.79907 6.91705C1.83431 6.96964 1.87639 7.01856 1.92004 7.068C1.95923 7.1127 1.99631 7.15478 2.01892 7.19396C2.03497 7.23683 1.98921 7.38515 1.96712 7.45642C1.95476 7.49665 1.94292 7.53531 1.93346 7.57134C1.92241 7.61341 1.91294 7.65838 1.90348 7.70361C1.89322 7.75305 1.87744 7.82958 1.86087 7.87166C1.79855 7.8472 1.68468 7.78461 1.62314 7.73912C1.15057 7.38725 0.97727 7.16083 0.740065 6.58675C0.562029 6.1552 0.473668 5.30132 0.562029 4.86267C0.660645 4.37116 0.870764 3.74554 1.04012 3.43812C1.42065 2.74938 1.97264 2.19187 2.68084 1.7811C3.24177 1.45606 3.85293 1.24936 4.55034 1.14969C4.79833 1.11366 5.06131 1.09972 5.33165 1.08736C6.02854 1.05449 6.75936 1.18861 7.38787 1.46421C7.93697 1.70536 8.39876 2.03145 8.79927 2.46142C9.20321 2.89428 9.48485 3.39394 9.66105 3.98932C9.75335 4.29885 9.7999 4.65991 9.7999 5.06174C9.79964 5.42281 9.7694 5.75311 9.69892 6.16625Z" fill="#B9B7B7"/>
</svg>
