<svg width="140" height="10" viewBox="0 0 140 10" fill="none" xmlns="http://www.w3.org/2000/svg">
<path d="M9.63281 9.05561C9.66406 9.05561 9.67968 9.08685 9.67968 9.14935C9.67968 9.19623 9.66406 9.21967 9.63281 9.21967C9.35156 9.21967 9.125 9.21185 8.95312 9.19623H7.99218H6.9375C6.78125 9.21185 6.5625 9.21967 6.28125 9.21967C6.26562 9.21967 6.25781 9.19623 6.25781 9.14935C6.25781 9.08685 6.26562 9.05561 6.28125 9.05561C6.65625 9.05561 6.92187 9.03217 7.07812 8.98529C7.25 8.93842 7.36718 8.85248 7.42968 8.72748C7.49218 8.58686 7.52343 8.37592 7.52343 8.09467V4.81345H2.15625V8.09467C2.15625 8.37592 2.17969 8.58686 2.22656 8.72748C2.28906 8.85248 2.40625 8.93842 2.57812 8.98529C2.75 9.03217 3.01562 9.05561 3.375 9.05561C3.39062 9.05561 3.39844 9.08685 3.39844 9.14935C3.39844 9.19623 3.39062 9.21967 3.375 9.21967C3.09375 9.21967 2.86719 9.21185 2.69531 9.19623H1.6875H0.726562C0.554687 9.21185 0.320312 9.21967 0.0234375 9.21967C0.0078125 9.21967 0 9.19623 0 9.14935C0 9.08685 0.0078125 9.05561 0.0234375 9.05561C0.382812 9.05561 0.648437 9.03217 0.820312 8.98529C0.992187 8.93842 1.10156 8.85248 1.14844 8.72748C1.21094 8.58686 1.24219 8.37592 1.24219 8.09467V1.60253C1.24219 1.32128 1.21094 1.11816 1.14844 0.993158C1.10156 0.868159 0.992187 0.782222 0.820312 0.735347C0.648437 0.672848 0.382812 0.641598 0.0234375 0.641598C0.0078125 0.641598 0 0.618161 0 0.571286C0 0.508786 0.0078125 0.477536 0.0234375 0.477536H0.75C1.14062 0.508786 1.45312 0.524411 1.6875 0.524411C1.95312 0.524411 2.29687 0.508786 2.71875 0.477536H3.375C3.39062 0.477536 3.39844 0.508786 3.39844 0.571286C3.39844 0.618161 3.39062 0.641598 3.375 0.641598C3.01562 0.641598 2.75 0.672848 2.57812 0.735347C2.40625 0.782222 2.28906 0.875971 2.22656 1.0166C2.17969 1.15722 2.15625 1.36034 2.15625 1.62597V4.50876H7.52343V1.62597C7.52343 1.36034 7.49218 1.15722 7.42968 1.0166C7.36718 0.875971 7.25 0.782222 7.07812 0.735347C6.92187 0.672848 6.65625 0.641598 6.28125 0.641598C6.26562 0.641598 6.25781 0.618161 6.25781 0.571286C6.25781 0.508786 6.26562 0.477536 6.28125 0.477536H6.9375C7.35937 0.508786 7.71093 0.524411 7.99218 0.524411C8.24218 0.524411 8.5625 0.508786 8.95312 0.477536H9.63281C9.66406 0.477536 9.67968 0.508786 9.67968 0.571286C9.67968 0.618161 9.66406 0.641598 9.63281 0.641598C9.27343 0.641598 9.00781 0.672848 8.83593 0.735347C8.67968 0.782222 8.57031 0.868159 8.50781 0.993158C8.44531 1.11816 8.41406 1.32128 8.41406 1.60253V8.09467C8.41406 8.37592 8.44531 8.58686 8.50781 8.72748C8.57031 8.85248 8.67968 8.93842 8.83593 8.98529C9.00781 9.03217 9.27343 9.05561 9.63281 9.05561ZM15.2842 9.38373C14.4092 9.38373 13.6279 9.1806 12.9404 8.77436C12.2685 8.36811 11.7451 7.82124 11.3701 7.13374C11.0107 6.43062 10.831 5.67282 10.831 4.86032C10.831 3.89158 11.0732 3.06346 11.5576 2.37596C12.042 1.68847 12.667 1.17284 13.4326 0.829097C14.1982 0.485349 14.9717 0.313475 15.7529 0.313475C16.6435 0.313475 17.4248 0.524411 18.0967 0.946283C18.7685 1.35253 19.2842 1.8994 19.6435 2.5869C20.0029 3.27439 20.1826 4.00095 20.1826 4.76657C20.1826 5.61032 19.956 6.39156 19.5029 7.11031C19.0654 7.81343 18.4717 8.36811 17.7217 8.77436C16.9717 9.1806 16.1592 9.38373 15.2842 9.38373ZM15.7529 9.10248C16.3935 9.10248 16.9639 8.94623 17.4639 8.63373C17.9795 8.32124 18.3857 7.86811 18.6826 7.27437C18.9795 6.68062 19.1279 5.96969 19.1279 5.14157C19.1279 4.26657 18.9639 3.49314 18.6357 2.82127C18.3076 2.13378 17.8467 1.60253 17.2529 1.22753C16.6592 0.836909 15.9639 0.641598 15.167 0.641598C14.1514 0.641598 13.3545 0.977533 12.7764 1.6494C12.1982 2.30565 11.9092 3.21189 11.9092 4.36814C11.9092 5.24313 12.0654 6.04 12.3779 6.75875C12.706 7.47749 13.167 8.0478 13.7607 8.46967C14.3545 8.89154 15.0185 9.10248 15.7529 9.10248ZM22.9084 2.11815C22.9084 2.47752 22.9943 2.79783 23.1662 3.07908C23.3381 3.34471 23.549 3.57127 23.799 3.75876C24.0647 3.93064 24.424 4.14939 24.8772 4.41501C25.3615 4.71188 25.7365 4.96188 26.0022 5.16501C26.2678 5.3525 26.4943 5.6025 26.6818 5.915C26.885 6.21187 26.9865 6.57125 26.9865 6.99312C26.9865 7.44624 26.8693 7.85249 26.635 8.21186C26.4162 8.57123 26.0881 8.86029 25.6506 9.07904C25.2287 9.28217 24.7131 9.38373 24.1037 9.38373C23.385 9.38373 22.7287 9.21967 22.135 8.89154C22.0881 8.86029 22.0568 8.82904 22.0412 8.79779C22.0256 8.76655 22.01 8.71186 21.9943 8.63373L21.8303 6.73531C21.8147 6.68843 21.8303 6.665 21.8772 6.665C21.9397 6.64937 21.9709 6.665 21.9709 6.71187C22.1272 7.38374 22.4084 7.96186 22.8147 8.44623C23.2209 8.93061 23.76 9.17279 24.4318 9.17279C24.885 9.17279 25.2756 9.04779 25.6037 8.79779C25.9318 8.53217 26.0959 8.11811 26.0959 7.55562C26.0959 7.13374 26.0022 6.77437 25.8147 6.4775C25.6272 6.165 25.4006 5.90719 25.135 5.70406C24.8693 5.50094 24.51 5.26657 24.0568 5.00094C23.6037 4.7197 23.2443 4.48532 22.9787 4.29782C22.7287 4.0947 22.51 3.8447 22.3225 3.54783C22.1506 3.25096 22.0647 2.8994 22.0647 2.49315C22.0647 2.04003 22.1897 1.6494 22.4397 1.32128C22.6897 0.977533 23.01 0.727535 23.4006 0.571286C23.8068 0.399412 24.2287 0.313475 24.6662 0.313475C25.2287 0.313475 25.7756 0.430662 26.3068 0.665035C26.4475 0.71191 26.5178 0.790034 26.5178 0.899409L26.6115 2.49315C26.6115 2.54002 26.5881 2.56346 26.5412 2.56346C26.4943 2.56346 26.4709 2.54002 26.4709 2.49315C26.3928 2.00878 26.1897 1.56347 25.8615 1.15722C25.5334 0.735347 25.0647 0.524411 24.4553 0.524411C23.924 0.524411 23.5334 0.68066 23.2834 0.993158C23.0334 1.29003 22.9084 1.66503 22.9084 2.11815ZM30.4348 8.02436C30.4348 8.32124 30.4738 8.53998 30.552 8.68061C30.6301 8.82123 30.7785 8.92279 30.9973 8.98529C31.2316 9.03217 31.5988 9.05561 32.0988 9.05561C32.1145 9.05561 32.1223 9.08685 32.1223 9.14935C32.1223 9.19623 32.1145 9.21967 32.0988 9.21967C31.7082 9.21967 31.4035 9.21185 31.1848 9.19623H29.9895H29.052C28.8645 9.21185 28.6223 9.21967 28.3254 9.21967C28.3098 9.21967 28.302 9.19623 28.302 9.14935C28.302 9.08685 28.3098 9.05561 28.3254 9.05561C28.6848 9.05561 28.9426 9.03217 29.0988 8.98529C29.2707 8.93842 29.3801 8.85248 29.427 8.72748C29.4895 8.58686 29.5207 8.37592 29.5207 8.09467V1.60253C29.5207 1.32128 29.4895 1.11816 29.427 0.993158C29.3801 0.868159 29.2707 0.782222 29.0988 0.735347C28.9426 0.672848 28.6848 0.641598 28.3254 0.641598C28.3098 0.641598 28.302 0.618161 28.302 0.571286C28.302 0.508786 28.3098 0.477536 28.3254 0.477536H29.0285C29.4191 0.508786 29.7316 0.524411 29.966 0.524411C30.2004 0.524411 30.4582 0.508786 30.7395 0.477536C30.8645 0.477536 31.0441 0.469724 31.2785 0.454099C31.5285 0.438474 31.7395 0.430662 31.9113 0.430662C32.7707 0.430662 33.4582 0.625973 33.9738 1.0166C34.4895 1.39159 34.7473 1.96971 34.7473 2.75096C34.7473 3.37596 34.591 3.89939 34.2785 4.32126C33.9816 4.72751 33.5988 5.04001 33.1301 5.25876C32.6613 5.46188 32.177 5.56344 31.677 5.56344C31.3957 5.56344 31.1691 5.54 30.9973 5.49313C30.966 5.49313 30.9504 5.46969 30.9504 5.42282C30.9504 5.39157 30.9582 5.36032 30.9738 5.32907C30.9895 5.29782 31.0051 5.29001 31.0207 5.30563C31.1613 5.33688 31.3254 5.3525 31.5129 5.3525C32.1379 5.3525 32.6613 5.15719 33.0832 4.76657C33.5051 4.36032 33.716 3.7822 33.716 3.03221C33.716 2.28221 33.5129 1.69628 33.1066 1.27441C32.716 0.852534 32.2082 0.641598 31.5832 0.641598C31.2395 0.641598 30.9895 0.665035 30.8332 0.71191C30.6926 0.74316 30.591 0.829097 30.5285 0.969721C30.466 1.09472 30.4348 1.31347 30.4348 1.62597V8.02436ZM38.1263 8.09467C38.1263 8.37592 38.1497 8.58686 38.1966 8.72748C38.2591 8.85248 38.3685 8.93842 38.5247 8.98529C38.6966 9.03217 38.9622 9.05561 39.3216 9.05561C39.3372 9.05561 39.345 9.08685 39.345 9.14935C39.345 9.19623 39.3372 9.21967 39.3216 9.21967C39.0404 9.21967 38.8138 9.21185 38.6419 9.19623H37.6575H36.6732C36.5169 9.21185 36.2904 9.21967 35.9935 9.21967C35.9622 9.21967 35.9466 9.19623 35.9466 9.14935C35.9466 9.08685 35.9622 9.05561 35.9935 9.05561C36.3529 9.05561 36.6107 9.03217 36.7669 8.98529C36.9388 8.93842 37.0482 8.85248 37.095 8.72748C37.1575 8.58686 37.1888 8.37592 37.1888 8.09467V1.60253C37.1888 1.32128 37.1575 1.11816 37.095 0.993158C37.0482 0.868159 36.9388 0.782222 36.7669 0.735347C36.6107 0.672848 36.3529 0.641598 35.9935 0.641598C35.9622 0.641598 35.9466 0.618161 35.9466 0.571286C35.9466 0.508786 35.9622 0.477536 35.9935 0.477536H36.6732C37.0638 0.508786 37.3919 0.524411 37.6575 0.524411C37.9232 0.524411 38.2513 0.508786 38.6419 0.477536H39.3216C39.3372 0.477536 39.345 0.508786 39.345 0.571286C39.345 0.618161 39.3372 0.641598 39.3216 0.641598C38.9622 0.641598 38.7044 0.672848 38.5482 0.735347C38.3919 0.782222 38.2825 0.875971 38.22 1.0166C38.1575 1.15722 38.1263 1.36034 38.1263 1.62597V8.09467ZM42.6311 0.735347C42.0373 0.735347 41.592 0.883784 41.2951 1.18066C41.0139 1.47753 40.8029 1.98534 40.6623 2.70408C40.6623 2.71971 40.6389 2.72752 40.592 2.72752C40.5451 2.72752 40.5217 2.71971 40.5217 2.70408C40.5529 2.36034 40.592 1.92284 40.6389 1.39159C40.6857 0.844722 40.7092 0.438474 40.7092 0.172851C40.7092 0.125976 40.7326 0.102539 40.7795 0.102539C40.842 0.102539 40.8732 0.125976 40.8732 0.172851C40.8732 0.375975 41.1232 0.477536 41.6232 0.477536C42.4201 0.508786 43.3576 0.524411 44.4357 0.524411C44.9826 0.524411 45.5607 0.508786 46.1701 0.477536H47.1311C47.4748 0.477536 47.7248 0.454099 47.8811 0.407224C48.0373 0.36035 48.1389 0.2666 48.1857 0.125976C48.2014 0.0947265 48.2326 0.0791016 48.2795 0.0791016C48.3264 0.0791016 48.3498 0.0947265 48.3498 0.125976C48.3186 0.3916 48.2873 0.805659 48.2561 1.36816C48.2404 1.91503 48.2326 2.36034 48.2326 2.70408C48.2326 2.71971 48.2014 2.72752 48.1389 2.72752C48.0764 2.72752 48.0451 2.71971 48.0451 2.70408C48.0295 1.96971 47.8811 1.46191 47.5998 1.18066C47.3342 0.883784 46.8889 0.735347 46.2639 0.735347C45.842 0.735347 45.5451 0.750972 45.3732 0.782222C45.2014 0.813472 45.0764 0.891596 44.9982 1.0166C44.9357 1.14159 44.9045 1.34472 44.9045 1.62597V8.09467C44.9045 8.37592 44.9357 8.58686 44.9982 8.72748C45.0764 8.85248 45.2014 8.93842 45.3732 8.98529C45.5607 9.03217 45.8576 9.05561 46.2639 9.05561C46.2951 9.05561 46.3107 9.08685 46.3107 9.14935C46.3107 9.19623 46.2951 9.21967 46.2639 9.21967C45.9514 9.21967 45.7014 9.21185 45.5139 9.19623H44.4357H43.3811C43.1936 9.21185 42.9357 9.21967 42.6076 9.21967C42.592 9.21967 42.5842 9.19623 42.5842 9.14935C42.5842 9.08685 42.592 9.05561 42.6076 9.05561C43.0139 9.05561 43.3107 9.03217 43.4982 8.98529C43.6857 8.93842 43.8107 8.85248 43.8732 8.72748C43.9514 8.58686 43.9904 8.37592 43.9904 8.09467V1.60253C43.9904 1.32128 43.9514 1.12597 43.8732 1.0166C43.8107 0.891596 43.6936 0.813472 43.5217 0.782222C43.3498 0.750972 43.0529 0.735347 42.6311 0.735347ZM57.6472 9.05561C57.694 9.05561 57.7175 9.08685 57.7175 9.14935C57.7175 9.19623 57.694 9.21967 57.6472 9.21967C57.4753 9.21967 57.2018 9.21185 56.8268 9.19623C56.4518 9.1806 56.1784 9.17279 56.0065 9.17279C55.8034 9.17279 55.5456 9.1806 55.2331 9.19623C54.9362 9.21185 54.7097 9.21967 54.5534 9.21967C54.5065 9.21967 54.4831 9.19623 54.4831 9.14935C54.4831 9.08685 54.5065 9.05561 54.5534 9.05561C54.8972 9.05561 55.1472 9.02436 55.3034 8.96186C55.4597 8.88373 55.5378 8.76655 55.5378 8.6103C55.5378 8.4853 55.4753 8.28999 55.3503 8.02436L54.1081 5.37594H50.78L49.9128 7.43843C49.7722 7.75093 49.7019 8.00874 49.7019 8.21186C49.7019 8.50873 49.8112 8.72748 50.03 8.86811C50.2644 8.99311 50.6159 9.05561 51.0847 9.05561C51.1315 9.05561 51.155 9.08685 51.155 9.14935C51.155 9.19623 51.1315 9.21967 51.0847 9.21967C50.9128 9.21967 50.6706 9.21185 50.3581 9.19623C49.9987 9.1806 49.6862 9.17279 49.4206 9.17279C49.1862 9.17279 48.905 9.1806 48.5769 9.19623C48.3112 9.21185 48.0847 9.21967 47.8972 9.21967C47.8503 9.21967 47.8269 9.19623 47.8269 9.14935C47.8269 9.08685 47.8503 9.05561 47.8972 9.05561C48.1472 9.05561 48.3659 9.00873 48.5534 8.91498C48.7409 8.80561 48.9128 8.63373 49.069 8.39936C49.2253 8.14936 49.405 7.78999 49.6081 7.32124L52.5612 0.36035C52.5768 0.3291 52.6081 0.313475 52.655 0.313475C52.7018 0.313475 52.7331 0.3291 52.7487 0.36035L56.0534 7.2978C56.3659 7.9853 56.6315 8.45405 56.8503 8.70405C57.0847 8.93842 57.3503 9.05561 57.6472 9.05561ZM50.8972 5.09469H53.9909L52.3503 1.62597L50.8972 5.09469ZM60.2744 8.02436C60.2744 8.30561 60.3056 8.50873 60.3681 8.63373C60.4306 8.74311 60.5322 8.82123 60.6728 8.86811C60.829 8.89936 61.0712 8.91498 61.3994 8.91498H62.9228C63.454 8.91498 63.8759 8.75873 64.1884 8.44623C64.5165 8.11811 64.7275 7.66499 64.8212 7.08687C64.8212 7.05562 64.8447 7.03999 64.8915 7.03999C64.954 7.03999 64.9853 7.05562 64.9853 7.08687C64.9072 7.86811 64.8681 8.50873 64.8681 9.00873C64.8681 9.08685 64.8525 9.14154 64.8212 9.17279C64.79 9.20404 64.7353 9.21967 64.6572 9.21967H58.1884C58.1728 9.21967 58.165 9.19623 58.165 9.14935C58.165 9.08685 58.1728 9.05561 58.1884 9.05561C58.5478 9.05561 58.8056 9.03217 58.9619 8.98529C59.1181 8.93842 59.2275 8.85248 59.29 8.72748C59.3525 8.58686 59.3837 8.37592 59.3837 8.09467V1.60253C59.3837 1.32128 59.3525 1.11816 59.29 0.993158C59.2275 0.868159 59.1181 0.782222 58.9619 0.735347C58.8056 0.672848 58.5478 0.641598 58.1884 0.641598C58.1728 0.641598 58.165 0.618161 58.165 0.571286C58.165 0.508786 58.1728 0.477536 58.1884 0.477536H58.8681C59.2587 0.508786 59.579 0.524411 59.829 0.524411C60.079 0.524411 60.4072 0.508786 60.8134 0.477536H61.4697C61.5009 0.477536 61.5165 0.508786 61.5165 0.571286C61.5165 0.618161 61.5009 0.641598 61.4697 0.641598C61.1259 0.641598 60.8681 0.672848 60.6962 0.735347C60.54 0.782222 60.4306 0.875971 60.3681 1.0166C60.3056 1.14159 60.2744 1.34472 60.2744 1.62597V8.02436ZM67.9431 8.09467C67.9431 8.37592 67.9665 8.58686 68.0134 8.72748C68.0759 8.85248 68.1853 8.93842 68.3415 8.98529C68.5134 9.03217 68.779 9.05561 69.1384 9.05561C69.154 9.05561 69.1618 9.08685 69.1618 9.14935C69.1618 9.19623 69.154 9.21967 69.1384 9.21967C68.8571 9.21967 68.6306 9.21185 68.4587 9.19623H67.4743H66.49C66.3337 9.21185 66.1071 9.21967 65.8103 9.21967C65.779 9.21967 65.7634 9.19623 65.7634 9.14935C65.7634 9.08685 65.779 9.05561 65.8103 9.05561C66.1696 9.05561 66.4275 9.03217 66.5837 8.98529C66.7556 8.93842 66.865 8.85248 66.9118 8.72748C66.9743 8.58686 67.0056 8.37592 67.0056 8.09467V1.60253C67.0056 1.32128 66.9743 1.11816 66.9118 0.993158C66.865 0.868159 66.7556 0.782222 66.5837 0.735347C66.4275 0.672848 66.1696 0.641598 65.8103 0.641598C65.779 0.641598 65.7634 0.618161 65.7634 0.571286C65.7634 0.508786 65.779 0.477536 65.8103 0.477536H66.49C66.8806 0.508786 67.2087 0.524411 67.4743 0.524411C67.74 0.524411 68.0681 0.508786 68.4587 0.477536H69.1384C69.154 0.477536 69.1618 0.508786 69.1618 0.571286C69.1618 0.618161 69.154 0.641598 69.1384 0.641598C68.779 0.641598 68.5212 0.672848 68.365 0.735347C68.2087 0.782222 68.0993 0.875971 68.0368 1.0166C67.9743 1.15722 67.9431 1.36034 67.9431 1.62597V8.09467ZM72.4478 0.735347C71.8541 0.735347 71.4088 0.883784 71.1119 1.18066C70.8307 1.47753 70.6197 1.98534 70.4791 2.70408C70.4791 2.71971 70.4557 2.72752 70.4088 2.72752C70.3619 2.72752 70.3385 2.71971 70.3385 2.70408C70.3697 2.36034 70.4088 1.92284 70.4557 1.39159C70.5025 0.844722 70.526 0.438474 70.526 0.172851C70.526 0.125976 70.5494 0.102539 70.5963 0.102539C70.6588 0.102539 70.69 0.125976 70.69 0.172851C70.69 0.375975 70.94 0.477536 71.44 0.477536C72.2369 0.508786 73.1744 0.524411 74.2525 0.524411C74.7994 0.524411 75.3775 0.508786 75.9869 0.477536H76.9478C77.2916 0.477536 77.5416 0.454099 77.6978 0.407224C77.8541 0.36035 77.9557 0.2666 78.0025 0.125976C78.0182 0.0947265 78.0494 0.0791016 78.0963 0.0791016C78.1432 0.0791016 78.1666 0.0947265 78.1666 0.125976C78.1353 0.3916 78.1041 0.805659 78.0728 1.36816C78.0572 1.91503 78.0494 2.36034 78.0494 2.70408C78.0494 2.71971 78.0182 2.72752 77.9557 2.72752C77.8932 2.72752 77.8619 2.71971 77.8619 2.70408C77.8463 1.96971 77.6978 1.46191 77.4166 1.18066C77.151 0.883784 76.7057 0.735347 76.0807 0.735347C75.6588 0.735347 75.3619 0.750972 75.19 0.782222C75.0182 0.813472 74.8932 0.891596 74.815 1.0166C74.7525 1.14159 74.7213 1.34472 74.7213 1.62597V8.09467C74.7213 8.37592 74.7525 8.58686 74.815 8.72748C74.8932 8.85248 75.0182 8.93842 75.19 8.98529C75.3775 9.03217 75.6744 9.05561 76.0807 9.05561C76.1119 9.05561 76.1275 9.08685 76.1275 9.14935C76.1275 9.19623 76.1119 9.21967 76.0807 9.21967C75.7682 9.21967 75.5182 9.21185 75.3307 9.19623H74.2525H73.1978C73.0103 9.21185 72.7525 9.21967 72.4244 9.21967C72.4088 9.21967 72.401 9.19623 72.401 9.14935C72.401 9.08685 72.4088 9.05561 72.4244 9.05561C72.8307 9.05561 73.1275 9.03217 73.315 8.98529C73.5025 8.93842 73.6275 8.85248 73.69 8.72748C73.7682 8.58686 73.8072 8.37592 73.8072 8.09467V1.60253C73.8072 1.32128 73.7682 1.12597 73.69 1.0166C73.6275 0.891596 73.5103 0.813472 73.3385 0.782222C73.1666 0.750972 72.8697 0.735347 72.4478 0.735347ZM87.2721 0.477536C87.2877 0.477536 87.2955 0.508786 87.2955 0.571286C87.2955 0.618161 87.2877 0.641598 87.2721 0.641598C86.9283 0.641598 86.5846 0.766597 86.2408 1.0166C85.8971 1.26659 85.5924 1.60253 85.3267 2.0244L83.4517 4.9072V8.09467C83.4517 8.37592 83.4752 8.58686 83.5221 8.72748C83.5846 8.85248 83.6939 8.93842 83.8502 8.98529C84.0221 9.03217 84.2799 9.05561 84.6236 9.05561C84.6549 9.05561 84.6705 9.08685 84.6705 9.14935C84.6705 9.19623 84.6549 9.21967 84.6236 9.21967C84.3424 9.21967 84.1236 9.21185 83.9674 9.19623H82.983H82.0221C81.8502 9.21185 81.6158 9.21967 81.3189 9.21967C81.3033 9.21967 81.2955 9.19623 81.2955 9.14935C81.2955 9.08685 81.3033 9.05561 81.3189 9.05561C81.6783 9.05561 81.9361 9.03217 82.0924 8.98529C82.2642 8.93842 82.3814 8.85248 82.4439 8.72748C82.5064 8.58686 82.5377 8.37592 82.5377 8.09467V5.14157L80.2174 1.74315C79.9517 1.32128 79.7017 1.03222 79.4674 0.875971C79.233 0.719722 78.9596 0.641598 78.6471 0.641598C78.6314 0.641598 78.6236 0.618161 78.6236 0.571286C78.6236 0.508786 78.6314 0.477536 78.6471 0.477536C78.7721 0.477536 78.9439 0.485349 79.1627 0.500974L79.6549 0.524411C79.9674 0.524411 80.3658 0.508786 80.8502 0.477536H81.6002C81.6314 0.477536 81.6471 0.508786 81.6471 0.571286C81.6471 0.618161 81.6314 0.641598 81.6002 0.641598C81.1158 0.641598 80.8736 0.74316 80.8736 0.946283C80.8736 1.04003 80.9205 1.15722 81.0142 1.29784L83.2642 4.57907L84.9752 1.97753C85.1783 1.6494 85.2799 1.37597 85.2799 1.15722C85.2799 0.813472 85.0299 0.641598 84.5299 0.641598C84.5142 0.641598 84.5064 0.618161 84.5064 0.571286C84.5064 0.508786 84.5142 0.477536 84.5299 0.477536H85.1861C85.5455 0.508786 85.8736 0.524411 86.1705 0.524411C86.3267 0.524411 86.5142 0.508786 86.733 0.477536H87.2721ZM94.7081 9.26654C94.4424 9.26654 94.1299 9.25873 93.7706 9.2431C93.6456 9.22748 93.4815 9.21967 93.2784 9.21967C93.0752 9.20404 92.8487 9.19623 92.5987 9.19623H91.6612C91.4893 9.21185 91.2549 9.21967 90.9581 9.21967C90.9424 9.21967 90.9346 9.19623 90.9346 9.14935C90.9346 9.08685 90.9424 9.05561 90.9581 9.05561C91.3174 9.05561 91.5752 9.03217 91.7315 8.98529C91.8877 8.93842 91.9971 8.85248 92.0596 8.72748C92.1221 8.58686 92.1534 8.37592 92.1534 8.09467V1.60253C92.1534 1.32128 92.1221 1.11816 92.0596 0.993158C92.0127 0.868159 91.9034 0.782222 91.7315 0.735347C91.5752 0.672848 91.3174 0.641598 90.9581 0.641598C90.9424 0.641598 90.9346 0.618161 90.9346 0.571286C90.9346 0.508786 90.9424 0.477536 90.9581 0.477536H91.6612C92.0518 0.508786 92.3643 0.524411 92.5987 0.524411C92.9581 0.524411 93.3096 0.508786 93.6534 0.477536C94.0596 0.461912 94.3487 0.454099 94.5206 0.454099C95.4893 0.454099 96.3487 0.641598 97.0987 1.0166C97.8487 1.37597 98.4268 1.88378 98.8331 2.54002C99.2393 3.18064 99.4424 3.89939 99.4424 4.69626C99.4424 5.6025 99.2315 6.40719 98.8096 7.11031C98.3877 7.7978 97.8096 8.32905 97.0752 8.70405C96.3565 9.07904 95.5674 9.26654 94.7081 9.26654ZM94.5674 9.05561C95.3174 9.05561 95.9815 8.89936 96.5596 8.58686C97.1377 8.27436 97.5831 7.81343 97.8956 7.20406C98.2237 6.59468 98.3877 5.86031 98.3877 5.00094C98.3877 4.18845 98.2315 3.45408 97.919 2.79783C97.6221 2.14159 97.1846 1.62597 96.6065 1.25097C96.044 0.860346 95.3877 0.665035 94.6377 0.665035C94.2315 0.665035 93.919 0.688473 93.7002 0.735347C93.4815 0.782222 93.3174 0.875971 93.2081 1.0166C93.1143 1.15722 93.0674 1.36034 93.0674 1.62597V7.93061C93.0674 8.21186 93.1065 8.43061 93.1846 8.58686C93.2627 8.74311 93.4112 8.86029 93.6299 8.93842C93.8487 9.01654 94.1612 9.05561 94.5674 9.05561ZM106.791 7.13374C106.791 7.11812 106.806 7.11031 106.838 7.11031C106.869 7.11031 106.892 7.11812 106.908 7.13374C106.939 7.13374 106.955 7.14156 106.955 7.15718C106.861 7.75093 106.814 8.36811 106.814 9.00873C106.814 9.08685 106.799 9.14154 106.767 9.17279C106.736 9.20404 106.681 9.21967 106.603 9.21967H100.744C100.713 9.21967 100.697 9.19623 100.697 9.14935C100.697 9.08685 100.713 9.05561 100.744 9.05561C101.088 9.05561 101.338 9.03217 101.494 8.98529C101.666 8.93842 101.783 8.85248 101.845 8.72748C101.908 8.58686 101.939 8.37592 101.939 8.09467V1.60253C101.939 1.32128 101.908 1.11816 101.845 0.993158C101.783 0.868159 101.666 0.782222 101.494 0.735347C101.338 0.672848 101.088 0.641598 100.744 0.641598C100.713 0.641598 100.697 0.618161 100.697 0.571286C100.697 0.508786 100.713 0.477536 100.744 0.477536H106.369C106.447 0.477536 106.486 0.516599 106.486 0.594723L106.509 2.32909C106.509 2.34471 106.486 2.36034 106.439 2.37596C106.392 2.37596 106.369 2.36034 106.369 2.32909C106.338 1.84472 106.181 1.46191 105.9 1.18066C105.634 0.899409 105.283 0.758785 104.845 0.758785H103.978C103.65 0.758785 103.408 0.790034 103.252 0.852534C103.111 0.899409 103.009 0.985346 102.947 1.11034C102.884 1.23534 102.853 1.42284 102.853 1.67284V4.50876H104.564C105.002 4.50876 105.314 4.43845 105.502 4.29782C105.705 4.14157 105.806 3.89158 105.806 3.54783C105.806 3.51658 105.83 3.50095 105.877 3.50095C105.939 3.50095 105.97 3.51658 105.97 3.54783L105.947 4.67282C105.947 4.93845 105.955 5.14157 105.97 5.28219L105.994 5.96188C105.994 5.9775 105.963 5.98531 105.9 5.98531C105.838 5.98531 105.806 5.9775 105.806 5.96188C105.806 5.55563 105.705 5.26657 105.502 5.09469C105.314 4.9072 104.986 4.81345 104.517 4.81345H102.853V8.02436C102.853 8.28999 102.877 8.4853 102.924 8.6103C102.986 8.71967 103.088 8.79779 103.228 8.84467C103.384 8.89154 103.619 8.91498 103.931 8.91498H105.056C105.509 8.91498 105.884 8.75873 106.181 8.44623C106.478 8.13374 106.681 7.69624 106.791 7.13374ZM109.687 2.11815C109.687 2.47752 109.773 2.79783 109.945 3.07908C110.117 3.34471 110.328 3.57127 110.578 3.75876C110.844 3.93064 111.203 4.14939 111.656 4.41501C112.14 4.71188 112.515 4.96188 112.781 5.16501C113.047 5.3525 113.273 5.6025 113.461 5.915C113.664 6.21187 113.765 6.57125 113.765 6.99312C113.765 7.44624 113.648 7.85249 113.414 8.21186C113.195 8.57123 112.867 8.86029 112.43 9.07904C112.008 9.28217 111.492 9.38373 110.883 9.38373C110.164 9.38373 109.508 9.21967 108.914 8.89154C108.867 8.86029 108.836 8.82904 108.82 8.79779C108.805 8.76655 108.789 8.71186 108.773 8.63373L108.609 6.73531C108.594 6.68843 108.609 6.665 108.656 6.665C108.719 6.64937 108.75 6.665 108.75 6.71187C108.906 7.38374 109.187 7.96186 109.594 8.44623C110 8.93061 110.539 9.17279 111.211 9.17279C111.664 9.17279 112.055 9.04779 112.383 8.79779C112.711 8.53217 112.875 8.11811 112.875 7.55562C112.875 7.13374 112.781 6.77437 112.594 6.4775C112.406 6.165 112.18 5.90719 111.914 5.70406C111.648 5.50094 111.289 5.26657 110.836 5.00094C110.383 4.7197 110.023 4.48532 109.758 4.29782C109.508 4.0947 109.289 3.8447 109.101 3.54783C108.93 3.25096 108.844 2.8994 108.844 2.49315C108.844 2.04003 108.969 1.6494 109.219 1.32128C109.469 0.977533 109.789 0.727535 110.18 0.571286C110.586 0.399412 111.008 0.313475 111.445 0.313475C112.008 0.313475 112.555 0.430662 113.086 0.665035C113.226 0.71191 113.297 0.790034 113.297 0.899409L113.39 2.49315C113.39 2.54002 113.367 2.56346 113.32 2.56346C113.273 2.56346 113.25 2.54002 113.25 2.49315C113.172 2.00878 112.969 1.56347 112.64 1.15722C112.312 0.735347 111.844 0.524411 111.234 0.524411C110.703 0.524411 110.312 0.68066 110.062 0.993158C109.812 1.29003 109.687 1.66503 109.687 2.11815ZM117.308 8.09467C117.308 8.37592 117.331 8.58686 117.378 8.72748C117.44 8.85248 117.55 8.93842 117.706 8.98529C117.878 9.03217 118.144 9.05561 118.503 9.05561C118.519 9.05561 118.526 9.08685 118.526 9.14935C118.526 9.19623 118.519 9.21967 118.503 9.21967C118.222 9.21967 117.995 9.21185 117.823 9.19623H116.839H115.854C115.698 9.21185 115.472 9.21967 115.175 9.21967C115.144 9.21967 115.128 9.19623 115.128 9.14935C115.128 9.08685 115.144 9.05561 115.175 9.05561C115.534 9.05561 115.792 9.03217 115.948 8.98529C116.12 8.93842 116.229 8.85248 116.276 8.72748C116.339 8.58686 116.37 8.37592 116.37 8.09467V1.60253C116.37 1.32128 116.339 1.11816 116.276 0.993158C116.229 0.868159 116.12 0.782222 115.948 0.735347C115.792 0.672848 115.534 0.641598 115.175 0.641598C115.144 0.641598 115.128 0.618161 115.128 0.571286C115.128 0.508786 115.144 0.477536 115.175 0.477536H115.854C116.245 0.508786 116.573 0.524411 116.839 0.524411C117.104 0.524411 117.433 0.508786 117.823 0.477536H118.503C118.519 0.477536 118.526 0.508786 118.526 0.571286C118.526 0.618161 118.519 0.641598 118.503 0.641598C118.144 0.641598 117.886 0.672848 117.729 0.735347C117.573 0.782222 117.464 0.875971 117.401 1.0166C117.339 1.15722 117.308 1.36034 117.308 1.62597V8.09467ZM124.883 9.38373C123.851 9.38373 122.953 9.1806 122.187 8.77436C121.437 8.36811 120.859 7.81343 120.453 7.11031C120.047 6.40719 119.844 5.63375 119.844 4.79001C119.844 3.88376 120.07 3.09471 120.523 2.42284C120.992 1.75097 121.625 1.23534 122.422 0.875971C123.219 0.500974 124.109 0.313475 125.094 0.313475C125.594 0.313475 126.062 0.36035 126.5 0.454099C126.937 0.547849 127.297 0.688473 127.578 0.875971C127.656 0.907221 127.695 0.938471 127.695 0.969721C127.711 1.00097 127.726 1.07128 127.742 1.18066L127.906 2.82127C127.906 2.85252 127.883 2.87596 127.836 2.89158C127.789 2.89158 127.758 2.87596 127.742 2.84471C127.305 1.31347 126.336 0.547849 124.836 0.547849C124.101 0.547849 123.437 0.71191 122.844 1.04003C122.25 1.36816 121.781 1.8369 121.437 2.44627C121.094 3.05564 120.922 3.76658 120.922 4.57907C120.922 5.37594 121.086 6.12594 121.414 6.82906C121.742 7.53218 122.234 8.10249 122.89 8.53998C123.547 8.96186 124.336 9.17279 125.258 9.17279C125.914 9.17279 126.375 9.04779 126.64 8.79779C126.922 8.53217 127.062 8.08686 127.062 7.46187C127.062 6.97749 127.031 6.64156 126.969 6.45406C126.906 6.26656 126.765 6.14156 126.547 6.07906C126.344 6.00094 125.984 5.96188 125.469 5.96188C125.406 5.96188 125.375 5.93063 125.375 5.86813C125.375 5.83688 125.383 5.81344 125.398 5.79781C125.414 5.76656 125.43 5.75094 125.445 5.75094C126.18 5.79781 126.765 5.82125 127.203 5.82125C127.64 5.82125 128.101 5.80563 128.586 5.77438C128.617 5.77438 128.633 5.79 128.633 5.82125C128.648 5.83688 128.656 5.8525 128.656 5.86813C128.656 5.93063 128.633 5.96188 128.586 5.96188C128.351 5.96188 128.187 6.00094 128.094 6.07906C128.015 6.14156 127.961 6.28219 127.93 6.50093C127.914 6.70406 127.906 7.07124 127.906 7.60249C127.906 8.02436 127.922 8.32905 127.953 8.51655C127.984 8.68842 128 8.79779 128 8.84467C128 8.89154 127.984 8.93061 127.953 8.96186C127.937 8.97748 127.898 8.99311 127.836 9.00873C126.68 9.25873 125.695 9.38373 124.883 9.38373ZM138.998 0.477536C139.029 0.477536 139.045 0.508786 139.045 0.571286C139.045 0.618161 139.029 0.641598 138.998 0.641598C138.607 0.641598 138.326 0.750972 138.154 0.969721C137.982 1.18847 137.896 1.54003 137.896 2.0244V9.38373C137.896 9.39935 137.873 9.41498 137.826 9.4306C137.779 9.44623 137.74 9.43842 137.709 9.40717L131.287 1.62597L131.146 1.48534V7.69624C131.146 8.18061 131.232 8.53217 131.404 8.75092C131.576 8.95404 131.857 9.05561 132.248 9.05561C132.279 9.05561 132.295 9.08685 132.295 9.14935C132.295 9.19623 132.279 9.21967 132.248 9.21967C132.014 9.21967 131.834 9.21185 131.709 9.19623H131.006H130.303C130.178 9.21185 129.982 9.21967 129.717 9.21967C129.701 9.21967 129.693 9.19623 129.693 9.14935C129.693 9.08685 129.701 9.05561 129.717 9.05561C130.123 9.05561 130.412 8.95404 130.584 8.75092C130.756 8.53217 130.842 8.18061 130.842 7.69624V1.15722C130.467 0.813472 130.092 0.641598 129.717 0.641598C129.701 0.641598 129.693 0.618161 129.693 0.571286C129.693 0.508786 129.701 0.477536 129.717 0.477536H130.256C130.365 0.493161 130.514 0.500974 130.701 0.500974C130.904 0.500974 131.068 0.500974 131.193 0.500974C131.334 0.485349 131.443 0.477536 131.521 0.477536C131.6 0.477536 131.654 0.493161 131.686 0.524411C131.717 0.555661 131.771 0.625973 131.85 0.735347C131.959 0.907221 132.068 1.06347 132.178 1.20409L137.568 7.81343V2.0244C137.568 1.54003 137.482 1.18847 137.311 0.969721C137.154 0.750972 136.881 0.641598 136.49 0.641598C136.475 0.641598 136.467 0.618161 136.467 0.571286C136.467 0.508786 136.475 0.477536 136.49 0.477536H137.053C137.334 0.508786 137.561 0.524411 137.732 0.524411C137.904 0.524411 138.139 0.508786 138.436 0.477536H138.998Z" fill="#999999"/>
</svg>
