<svg width="88" height="10" viewBox="0 0 88 10" fill="none" xmlns="http://www.w3.org/2000/svg">
<path d="M9.69922 9.55566C9.73047 9.55566 9.74609 9.58691 9.74609 9.64941C9.74609 9.69629 9.73047 9.71973 9.69922 9.71973C9.41797 9.71973 9.19141 9.71191 9.01953 9.69629H8.05859H7.00391C6.84766 9.71191 6.62891 9.71973 6.34766 9.71973C6.33203 9.71973 6.32422 9.69629 6.32422 9.64941C6.32422 9.58691 6.33203 9.55566 6.34766 9.55566C6.72266 9.55566 6.98828 9.53223 7.14453 9.48535C7.31641 9.43848 7.43359 9.35254 7.49609 9.22754C7.55859 9.08691 7.58984 8.87598 7.58984 8.59473V5.31348H2.22266V8.59473C2.22266 8.87598 2.24609 9.08691 2.29297 9.22754C2.35547 9.35254 2.47266 9.43848 2.64453 9.48535C2.81641 9.53223 3.08203 9.55566 3.44141 9.55566C3.45703 9.55566 3.46484 9.58691 3.46484 9.64941C3.46484 9.69629 3.45703 9.71973 3.44141 9.71973C3.16016 9.71973 2.93359 9.71191 2.76172 9.69629H1.75391H0.792969C0.621094 9.71191 0.386719 9.71973 0.0898438 9.71973C0.0742187 9.71973 0.0664062 9.69629 0.0664062 9.64941C0.0664062 9.58691 0.0742187 9.55566 0.0898438 9.55566C0.449219 9.55566 0.714844 9.53223 0.886719 9.48535C1.05859 9.43848 1.16797 9.35254 1.21484 9.22754C1.27734 9.08691 1.30859 8.87598 1.30859 8.59473V2.10254C1.30859 1.82129 1.27734 1.61816 1.21484 1.49316C1.16797 1.36816 1.05859 1.28223 0.886719 1.23535C0.714844 1.17285 0.449219 1.1416 0.0898438 1.1416C0.0742187 1.1416 0.0664062 1.11816 0.0664062 1.07129C0.0664062 1.00879 0.0742187 0.977539 0.0898438 0.977539H0.816406C1.20703 1.00879 1.51953 1.02441 1.75391 1.02441C2.01953 1.02441 2.36328 1.00879 2.78516 0.977539H3.44141C3.45703 0.977539 3.46484 1.00879 3.46484 1.07129C3.46484 1.11816 3.45703 1.1416 3.44141 1.1416C3.08203 1.1416 2.81641 1.17285 2.64453 1.23535C2.47266 1.28223 2.35547 1.37598 2.29297 1.5166C2.24609 1.65723 2.22266 1.86035 2.22266 2.12598V5.00879H7.58984V2.12598C7.58984 1.86035 7.55859 1.65723 7.49609 1.5166C7.43359 1.37598 7.31641 1.28223 7.14453 1.23535C6.98828 1.17285 6.72266 1.1416 6.34766 1.1416C6.33203 1.1416 6.32422 1.11816 6.32422 1.07129C6.32422 1.00879 6.33203 0.977539 6.34766 0.977539H7.00391C7.42578 1.00879 7.77734 1.02441 8.05859 1.02441C8.30859 1.02441 8.62891 1.00879 9.01953 0.977539H9.69922C9.73047 0.977539 9.74609 1.00879 9.74609 1.07129C9.74609 1.11816 9.73047 1.1416 9.69922 1.1416C9.33984 1.1416 9.07422 1.17285 8.90234 1.23535C8.74609 1.28223 8.63672 1.36816 8.57422 1.49316C8.51172 1.61816 8.48047 1.82129 8.48047 2.10254V8.59473C8.48047 8.87598 8.51172 9.08691 8.57422 9.22754C8.63672 9.35254 8.74609 9.43848 8.90234 9.48535C9.07422 9.53223 9.33984 9.55566 9.69922 9.55566ZM15.3506 9.88379C14.4756 9.88379 13.6943 9.68066 13.0068 9.27441C12.335 8.86816 11.8115 8.32129 11.4365 7.63379C11.0771 6.93066 10.8975 6.17285 10.8975 5.36035C10.8975 4.3916 11.1396 3.56348 11.624 2.87598C12.1084 2.18848 12.7334 1.67285 13.499 1.3291C14.2646 0.985352 15.0381 0.813477 15.8193 0.813477C16.71 0.813477 17.4912 1.02441 18.1631 1.44629C18.835 1.85254 19.3506 2.39941 19.71 3.08691C20.0693 3.77441 20.249 4.50098 20.249 5.2666C20.249 6.11035 20.0225 6.8916 19.5693 7.61035C19.1318 8.31348 18.5381 8.86816 17.7881 9.27441C17.0381 9.68066 16.2256 9.88379 15.3506 9.88379ZM15.8193 9.60254C16.46 9.60254 17.0303 9.44629 17.5303 9.13379C18.0459 8.82129 18.4521 8.36816 18.749 7.77441C19.0459 7.18066 19.1943 6.46973 19.1943 5.6416C19.1943 4.7666 19.0303 3.99316 18.7021 3.32129C18.374 2.63379 17.9131 2.10254 17.3193 1.72754C16.7256 1.33691 16.0303 1.1416 15.2334 1.1416C14.2178 1.1416 13.4209 1.47754 12.8428 2.14941C12.2646 2.80566 11.9756 3.71191 11.9756 4.86816C11.9756 5.74316 12.1318 6.54004 12.4443 7.25879C12.7725 7.97754 13.2334 8.54785 13.8271 8.96973C14.4209 9.3916 15.085 9.60254 15.8193 9.60254ZM22.9748 2.61816C22.9748 2.97754 23.0608 3.29785 23.2326 3.5791C23.4045 3.84473 23.6154 4.07129 23.8654 4.25879C24.1311 4.43066 24.4904 4.64941 24.9436 4.91504C25.4279 5.21191 25.8029 5.46191 26.0686 5.66504C26.3342 5.85254 26.5608 6.10254 26.7483 6.41504C26.9514 6.71191 27.0529 7.07129 27.0529 7.49316C27.0529 7.94629 26.9358 8.35254 26.7014 8.71191C26.4826 9.07129 26.1545 9.36035 25.717 9.5791C25.2951 9.78223 24.7795 9.88379 24.1701 9.88379C23.4514 9.88379 22.7951 9.71973 22.2014 9.3916C22.1545 9.36035 22.1233 9.3291 22.1076 9.29785C22.092 9.2666 22.0764 9.21191 22.0608 9.13379L21.8967 7.23535C21.8811 7.18848 21.8967 7.16504 21.9436 7.16504C22.0061 7.14941 22.0373 7.16504 22.0373 7.21191C22.1936 7.88379 22.4748 8.46191 22.8811 8.94629C23.2873 9.43066 23.8264 9.67285 24.4983 9.67285C24.9514 9.67285 25.342 9.54785 25.6701 9.29785C25.9983 9.03223 26.1623 8.61816 26.1623 8.05566C26.1623 7.63379 26.0686 7.27441 25.8811 6.97754C25.6936 6.66504 25.467 6.40723 25.2014 6.2041C24.9358 6.00098 24.5764 5.7666 24.1233 5.50098C23.6701 5.21973 23.3108 4.98535 23.0451 4.79785C22.7951 4.59473 22.5764 4.34473 22.3889 4.04785C22.217 3.75098 22.1311 3.39941 22.1311 2.99316C22.1311 2.54004 22.2561 2.14941 22.5061 1.82129C22.7561 1.47754 23.0764 1.22754 23.467 1.07129C23.8733 0.899414 24.2951 0.813477 24.7326 0.813477C25.2951 0.813477 25.842 0.930664 26.3733 1.16504C26.5139 1.21191 26.5842 1.29004 26.5842 1.39941L26.6779 2.99316C26.6779 3.04004 26.6545 3.06348 26.6076 3.06348C26.5608 3.06348 26.5373 3.04004 26.5373 2.99316C26.4592 2.50879 26.2561 2.06348 25.9279 1.65723C25.5998 1.23535 25.1311 1.02441 24.5217 1.02441C23.9904 1.02441 23.5998 1.18066 23.3498 1.49316C23.0998 1.79004 22.9748 2.16504 22.9748 2.61816ZM30.5013 8.52441C30.5013 8.82129 30.5403 9.04004 30.6185 9.18066C30.6966 9.32129 30.845 9.42285 31.0638 9.48535C31.2982 9.53223 31.6653 9.55566 32.1653 9.55566C32.181 9.55566 32.1888 9.58691 32.1888 9.64941C32.1888 9.69629 32.181 9.71973 32.1653 9.71973C31.7747 9.71973 31.47 9.71191 31.2513 9.69629H30.056H29.1185C28.931 9.71191 28.6888 9.71973 28.3919 9.71973C28.3763 9.71973 28.3685 9.69629 28.3685 9.64941C28.3685 9.58691 28.3763 9.55566 28.3919 9.55566C28.7513 9.55566 29.0091 9.53223 29.1653 9.48535C29.3372 9.43848 29.4466 9.35254 29.4935 9.22754C29.556 9.08691 29.5872 8.87598 29.5872 8.59473V2.10254C29.5872 1.82129 29.556 1.61816 29.4935 1.49316C29.4466 1.36816 29.3372 1.28223 29.1653 1.23535C29.0091 1.17285 28.7513 1.1416 28.3919 1.1416C28.3763 1.1416 28.3685 1.11816 28.3685 1.07129C28.3685 1.00879 28.3763 0.977539 28.3919 0.977539H29.095C29.4857 1.00879 29.7982 1.02441 30.0325 1.02441C30.2669 1.02441 30.5247 1.00879 30.806 0.977539C30.931 0.977539 31.1107 0.969727 31.345 0.954102C31.595 0.938477 31.806 0.930664 31.9778 0.930664C32.8372 0.930664 33.5247 1.12598 34.0403 1.5166C34.556 1.8916 34.8138 2.46973 34.8138 3.25098C34.8138 3.87598 34.6575 4.39941 34.345 4.82129C34.0482 5.22754 33.6653 5.54004 33.1966 5.75879C32.7278 5.96191 32.2435 6.06348 31.7435 6.06348C31.4622 6.06348 31.2357 6.04004 31.0638 5.99316C31.0325 5.99316 31.0169 5.96973 31.0169 5.92285C31.0169 5.8916 31.0247 5.86035 31.0403 5.8291C31.056 5.79785 31.0716 5.79004 31.0872 5.80566C31.2278 5.83691 31.3919 5.85254 31.5794 5.85254C32.2044 5.85254 32.7278 5.65723 33.1497 5.2666C33.5716 4.86035 33.7825 4.28223 33.7825 3.53223C33.7825 2.78223 33.5794 2.19629 33.1732 1.77441C32.7825 1.35254 32.2747 1.1416 31.6497 1.1416C31.306 1.1416 31.056 1.16504 30.8997 1.21191C30.7591 1.24316 30.6575 1.3291 30.595 1.46973C30.5325 1.59473 30.5013 1.81348 30.5013 2.12598V8.52441ZM38.1927 8.59473C38.1927 8.87598 38.2162 9.08691 38.263 9.22754C38.3255 9.35254 38.4349 9.43848 38.5912 9.48535C38.763 9.53223 39.0287 9.55566 39.388 9.55566C39.4037 9.55566 39.4115 9.58691 39.4115 9.64941C39.4115 9.69629 39.4037 9.71973 39.388 9.71973C39.1068 9.71973 38.8802 9.71191 38.7083 9.69629H37.724H36.7396C36.5833 9.71191 36.3568 9.71973 36.0599 9.71973C36.0287 9.71973 36.013 9.69629 36.013 9.64941C36.013 9.58691 36.0287 9.55566 36.0599 9.55566C36.4193 9.55566 36.6771 9.53223 36.8333 9.48535C37.0052 9.43848 37.1146 9.35254 37.1615 9.22754C37.224 9.08691 37.2552 8.87598 37.2552 8.59473V2.10254C37.2552 1.82129 37.224 1.61816 37.1615 1.49316C37.1146 1.36816 37.0052 1.28223 36.8333 1.23535C36.6771 1.17285 36.4193 1.1416 36.0599 1.1416C36.0287 1.1416 36.013 1.11816 36.013 1.07129C36.013 1.00879 36.0287 0.977539 36.0599 0.977539H36.7396C37.1302 1.00879 37.4583 1.02441 37.724 1.02441C37.9896 1.02441 38.3177 1.00879 38.7083 0.977539H39.388C39.4037 0.977539 39.4115 1.00879 39.4115 1.07129C39.4115 1.11816 39.4037 1.1416 39.388 1.1416C39.0287 1.1416 38.7708 1.17285 38.6146 1.23535C38.4583 1.28223 38.349 1.37598 38.2865 1.5166C38.224 1.65723 38.1927 1.86035 38.1927 2.12598V8.59473ZM42.6976 1.23535C42.1038 1.23535 41.6585 1.38379 41.3616 1.68066C41.0804 1.97754 40.8694 2.48535 40.7288 3.2041C40.7288 3.21973 40.7054 3.22754 40.6585 3.22754C40.6116 3.22754 40.5882 3.21973 40.5882 3.2041C40.6194 2.86035 40.6585 2.42285 40.7054 1.8916C40.7523 1.34473 40.7757 0.938477 40.7757 0.672852C40.7757 0.625977 40.7991 0.602539 40.846 0.602539C40.9085 0.602539 40.9398 0.625977 40.9398 0.672852C40.9398 0.875977 41.1898 0.977539 41.6898 0.977539C42.4866 1.00879 43.4241 1.02441 44.5023 1.02441C45.0491 1.02441 45.6273 1.00879 46.2366 0.977539H47.1976C47.5413 0.977539 47.7913 0.954102 47.9476 0.907227C48.1038 0.860352 48.2054 0.766602 48.2523 0.625977C48.2679 0.594727 48.2991 0.579102 48.346 0.579102C48.3929 0.579102 48.4163 0.594727 48.4163 0.625977C48.3851 0.891602 48.3538 1.30566 48.3226 1.86816C48.3069 2.41504 48.2991 2.86035 48.2991 3.2041C48.2991 3.21973 48.2679 3.22754 48.2054 3.22754C48.1429 3.22754 48.1116 3.21973 48.1116 3.2041C48.096 2.46973 47.9476 1.96191 47.6663 1.68066C47.4007 1.38379 46.9554 1.23535 46.3304 1.23535C45.9085 1.23535 45.6116 1.25098 45.4398 1.28223C45.2679 1.31348 45.1429 1.3916 45.0648 1.5166C45.0023 1.6416 44.971 1.84473 44.971 2.12598V8.59473C44.971 8.87598 45.0023 9.08691 45.0648 9.22754C45.1429 9.35254 45.2679 9.43848 45.4398 9.48535C45.6273 9.53223 45.9241 9.55566 46.3304 9.55566C46.3616 9.55566 46.3773 9.58691 46.3773 9.64941C46.3773 9.69629 46.3616 9.71973 46.3304 9.71973C46.0179 9.71973 45.7679 9.71191 45.5804 9.69629H44.5023H43.4476C43.2601 9.71191 43.0023 9.71973 42.6741 9.71973C42.6585 9.71973 42.6507 9.69629 42.6507 9.64941C42.6507 9.58691 42.6585 9.55566 42.6741 9.55566C43.0804 9.55566 43.3773 9.53223 43.5648 9.48535C43.7523 9.43848 43.8773 9.35254 43.9398 9.22754C44.0179 9.08691 44.0569 8.87598 44.0569 8.59473V2.10254C44.0569 1.82129 44.0179 1.62598 43.9398 1.5166C43.8773 1.3916 43.7601 1.31348 43.5882 1.28223C43.4163 1.25098 43.1194 1.23535 42.6976 1.23535ZM57.7136 9.55566C57.7605 9.55566 57.7839 9.58691 57.7839 9.64941C57.7839 9.69629 57.7605 9.71973 57.7136 9.71973C57.5417 9.71973 57.2683 9.71191 56.8933 9.69629C56.5183 9.68066 56.2448 9.67285 56.073 9.67285C55.8698 9.67285 55.612 9.68066 55.2995 9.69629C55.0027 9.71191 54.7761 9.71973 54.6198 9.71973C54.573 9.71973 54.5495 9.69629 54.5495 9.64941C54.5495 9.58691 54.573 9.55566 54.6198 9.55566C54.9636 9.55566 55.2136 9.52441 55.3698 9.46191C55.5261 9.38379 55.6042 9.2666 55.6042 9.11035C55.6042 8.98535 55.5417 8.79004 55.4167 8.52441L54.1745 5.87598H50.8464L49.9792 7.93848C49.8386 8.25098 49.7683 8.50879 49.7683 8.71191C49.7683 9.00879 49.8777 9.22754 50.0964 9.36816C50.3308 9.49316 50.6823 9.55566 51.1511 9.55566C51.198 9.55566 51.2214 9.58691 51.2214 9.64941C51.2214 9.69629 51.198 9.71973 51.1511 9.71973C50.9792 9.71973 50.737 9.71191 50.4245 9.69629C50.0652 9.68066 49.7527 9.67285 49.487 9.67285C49.2527 9.67285 48.9714 9.68066 48.6433 9.69629C48.3777 9.71191 48.1511 9.71973 47.9636 9.71973C47.9167 9.71973 47.8933 9.69629 47.8933 9.64941C47.8933 9.58691 47.9167 9.55566 47.9636 9.55566C48.2136 9.55566 48.4323 9.50879 48.6198 9.41504C48.8073 9.30566 48.9792 9.13379 49.1355 8.89941C49.2917 8.64941 49.4714 8.29004 49.6745 7.82129L52.6277 0.860352C52.6433 0.829102 52.6745 0.813477 52.7214 0.813477C52.7683 0.813477 52.7995 0.829102 52.8152 0.860352L56.1198 7.79785C56.4323 8.48535 56.698 8.9541 56.9167 9.2041C57.1511 9.43848 57.4167 9.55566 57.7136 9.55566ZM50.9636 5.59473H54.0573L52.4167 2.12598L50.9636 5.59473ZM60.3408 8.52441C60.3408 8.80566 60.372 9.00879 60.4345 9.13379C60.497 9.24316 60.5986 9.32129 60.7392 9.36816C60.8955 9.39941 61.1377 9.41504 61.4658 9.41504H62.9892C63.5205 9.41504 63.9424 9.25879 64.2549 8.94629C64.583 8.61816 64.7939 8.16504 64.8877 7.58691C64.8877 7.55566 64.9111 7.54004 64.958 7.54004C65.0205 7.54004 65.0517 7.55566 65.0517 7.58691C64.9736 8.36816 64.9345 9.00879 64.9345 9.50879C64.9345 9.58691 64.9189 9.6416 64.8877 9.67285C64.8564 9.7041 64.8017 9.71973 64.7236 9.71973H58.2549C58.2392 9.71973 58.2314 9.69629 58.2314 9.64941C58.2314 9.58691 58.2392 9.55566 58.2549 9.55566C58.6142 9.55566 58.872 9.53223 59.0283 9.48535C59.1845 9.43848 59.2939 9.35254 59.3564 9.22754C59.4189 9.08691 59.4502 8.87598 59.4502 8.59473V2.10254C59.4502 1.82129 59.4189 1.61816 59.3564 1.49316C59.2939 1.36816 59.1845 1.28223 59.0283 1.23535C58.872 1.17285 58.6142 1.1416 58.2549 1.1416C58.2392 1.1416 58.2314 1.11816 58.2314 1.07129C58.2314 1.00879 58.2392 0.977539 58.2549 0.977539H58.9345C59.3252 1.00879 59.6455 1.02441 59.8955 1.02441C60.1455 1.02441 60.4736 1.00879 60.8799 0.977539H61.5361C61.5674 0.977539 61.583 1.00879 61.583 1.07129C61.583 1.11816 61.5674 1.1416 61.5361 1.1416C61.1924 1.1416 60.9345 1.17285 60.7627 1.23535C60.6064 1.28223 60.497 1.37598 60.4345 1.5166C60.372 1.6416 60.3408 1.84473 60.3408 2.12598V8.52441ZM68.0095 8.59473C68.0095 8.87598 68.033 9.08691 68.0798 9.22754C68.1423 9.35254 68.2517 9.43848 68.408 9.48535C68.5798 9.53223 68.8455 9.55566 69.2048 9.55566C69.2205 9.55566 69.2283 9.58691 69.2283 9.64941C69.2283 9.69629 69.2205 9.71973 69.2048 9.71973C68.9236 9.71973 68.697 9.71191 68.5251 9.69629H67.5408H66.5564C66.4001 9.71191 66.1736 9.71973 65.8767 9.71973C65.8455 9.71973 65.8298 9.69629 65.8298 9.64941C65.8298 9.58691 65.8455 9.55566 65.8767 9.55566C66.2361 9.55566 66.4939 9.53223 66.6501 9.48535C66.822 9.43848 66.9314 9.35254 66.9783 9.22754C67.0408 9.08691 67.072 8.87598 67.072 8.59473V2.10254C67.072 1.82129 67.0408 1.61816 66.9783 1.49316C66.9314 1.36816 66.822 1.28223 66.6501 1.23535C66.4939 1.17285 66.2361 1.1416 65.8767 1.1416C65.8455 1.1416 65.8298 1.11816 65.8298 1.07129C65.8298 1.00879 65.8455 0.977539 65.8767 0.977539H66.5564C66.947 1.00879 67.2751 1.02441 67.5408 1.02441C67.8064 1.02441 68.1345 1.00879 68.5251 0.977539H69.2048C69.2205 0.977539 69.2283 1.00879 69.2283 1.07129C69.2283 1.11816 69.2205 1.1416 69.2048 1.1416C68.8455 1.1416 68.5876 1.17285 68.4314 1.23535C68.2751 1.28223 68.1658 1.37598 68.1033 1.5166C68.0408 1.65723 68.0095 1.86035 68.0095 2.12598V8.59473ZM72.5144 1.23535C71.9206 1.23535 71.4753 1.38379 71.1784 1.68066C70.8972 1.97754 70.6862 2.48535 70.5456 3.2041C70.5456 3.21973 70.5222 3.22754 70.4753 3.22754C70.4284 3.22754 70.405 3.21973 70.405 3.2041C70.4362 2.86035 70.4753 2.42285 70.5222 1.8916C70.5691 1.34473 70.5925 0.938477 70.5925 0.672852C70.5925 0.625977 70.6159 0.602539 70.6628 0.602539C70.7253 0.602539 70.7566 0.625977 70.7566 0.672852C70.7566 0.875977 71.0066 0.977539 71.5066 0.977539C72.3034 1.00879 73.2409 1.02441 74.3191 1.02441C74.8659 1.02441 75.4441 1.00879 76.0534 0.977539H77.0144C77.3581 0.977539 77.6081 0.954102 77.7644 0.907227C77.9206 0.860352 78.0222 0.766602 78.0691 0.625977C78.0847 0.594727 78.1159 0.579102 78.1628 0.579102C78.2097 0.579102 78.2331 0.594727 78.2331 0.625977C78.2019 0.891602 78.1706 1.30566 78.1394 1.86816C78.1237 2.41504 78.1159 2.86035 78.1159 3.2041C78.1159 3.21973 78.0847 3.22754 78.0222 3.22754C77.9597 3.22754 77.9284 3.21973 77.9284 3.2041C77.9128 2.46973 77.7644 1.96191 77.4831 1.68066C77.2175 1.38379 76.7722 1.23535 76.1472 1.23535C75.7253 1.23535 75.4284 1.25098 75.2566 1.28223C75.0847 1.31348 74.9597 1.3916 74.8816 1.5166C74.8191 1.6416 74.7878 1.84473 74.7878 2.12598V8.59473C74.7878 8.87598 74.8191 9.08691 74.8816 9.22754C74.9597 9.35254 75.0847 9.43848 75.2566 9.48535C75.4441 9.53223 75.7409 9.55566 76.1472 9.55566C76.1784 9.55566 76.1941 9.58691 76.1941 9.64941C76.1941 9.69629 76.1784 9.71973 76.1472 9.71973C75.8347 9.71973 75.5847 9.71191 75.3972 9.69629H74.3191H73.2644C73.0769 9.71191 72.8191 9.71973 72.4909 9.71973C72.4753 9.71973 72.4675 9.69629 72.4675 9.64941C72.4675 9.58691 72.4753 9.55566 72.4909 9.55566C72.8972 9.55566 73.1941 9.53223 73.3816 9.48535C73.5691 9.43848 73.6941 9.35254 73.7566 9.22754C73.8347 9.08691 73.8737 8.87598 73.8737 8.59473V2.10254C73.8737 1.82129 73.8347 1.62598 73.7566 1.5166C73.6941 1.3916 73.5769 1.31348 73.405 1.28223C73.2331 1.25098 72.9362 1.23535 72.5144 1.23535ZM87.3385 0.977539C87.3541 0.977539 87.3619 1.00879 87.3619 1.07129C87.3619 1.11816 87.3541 1.1416 87.3385 1.1416C86.9948 1.1416 86.651 1.2666 86.3073 1.5166C85.9635 1.7666 85.6588 2.10254 85.3932 2.52441L83.5182 5.40723V8.59473C83.5182 8.87598 83.5416 9.08691 83.5885 9.22754C83.651 9.35254 83.7604 9.43848 83.9166 9.48535C84.0885 9.53223 84.3463 9.55566 84.6901 9.55566C84.7213 9.55566 84.7369 9.58691 84.7369 9.64941C84.7369 9.69629 84.7213 9.71973 84.6901 9.71973C84.4088 9.71973 84.1901 9.71191 84.0338 9.69629H83.0494H82.0885C81.9166 9.71191 81.6823 9.71973 81.3854 9.71973C81.3698 9.71973 81.3619 9.69629 81.3619 9.64941C81.3619 9.58691 81.3698 9.55566 81.3854 9.55566C81.7448 9.55566 82.0026 9.53223 82.1588 9.48535C82.3307 9.43848 82.4479 9.35254 82.5104 9.22754C82.5729 9.08691 82.6041 8.87598 82.6041 8.59473V5.6416L80.2838 2.24316C80.0182 1.82129 79.7682 1.53223 79.5338 1.37598C79.2994 1.21973 79.026 1.1416 78.7135 1.1416C78.6979 1.1416 78.6901 1.11816 78.6901 1.07129C78.6901 1.00879 78.6979 0.977539 78.7135 0.977539C78.8385 0.977539 79.0104 0.985352 79.2291 1.00098L79.7213 1.02441C80.0338 1.02441 80.4323 1.00879 80.9166 0.977539H81.6666C81.6979 0.977539 81.7135 1.00879 81.7135 1.07129C81.7135 1.11816 81.6979 1.1416 81.6666 1.1416C81.1823 1.1416 80.9401 1.24316 80.9401 1.44629C80.9401 1.54004 80.9869 1.65723 81.0807 1.79785L83.3307 5.0791L85.0416 2.47754C85.2448 2.14941 85.3463 1.87598 85.3463 1.65723C85.3463 1.31348 85.0963 1.1416 84.5963 1.1416C84.5807 1.1416 84.5729 1.11816 84.5729 1.07129C84.5729 1.00879 84.5807 0.977539 84.5963 0.977539H85.2526C85.6119 1.00879 85.9401 1.02441 86.2369 1.02441C86.3932 1.02441 86.5807 1.00879 86.7994 0.977539H87.3385Z" fill="#999999"/>
</svg>
